viewRNote.md | My 1st Blog
…
    viewRNote.md

      Sep 22, 2020

    분석 대상 wine 준비

rattle.data 패키지에 있는 데이터 셋 wine 을 확인합니다.

library(dplyr)
library(rattle.data)

wine %>% as_tibble()

## # A tibble: 178 x 14
##    Type  Alcohol Malic   Ash Alcalinity Magnesium Phenols Flavanoids
##    <fct>   <dbl> <dbl> <dbl>      <dbl>     <int>   <dbl>      <dbl>
##  1 1        14.2  1.71  2.43       15.6       127    2.8        3.06
##  2 1        13.2  1.78  2.14       11.2       100    2.65       2.76
##  3 1        13.2  2.36  2.67       18.6       101    2.8        3.24
##  4 1        14.4  1.95  2.5        16.8       113    3.85       3.49
##  5 1        13.2  2.59  2.87       21         118    2.8        2.69
##  6 1        14.2  1.76  2.45       15.2       112    3.27       3.39
##  7 1        14.4  1.87  2.45       14.6        96    2.5        2.52
##  8 1        14.1  2.15  2.61       17.6       121    2.6        2.51
##  9 1        14.8  1.64  2.17       14          97    2.8        2.98
## 10 1        13.9  1.35  2.27       16          98    2.98       3.15
## # … with 168 more rows, and 6 more variables: Nonflavanoids <dbl>,
## #   Proanthocyanins <dbl>, Color <dbl>, Hue <dbl>, Dilution <dbl>,
## #   Proline <int>
…
